namespace = aw_eldritch_cultists

#The Adventurers Wanted uses a strict ID system to make the system easier to author content for
#The IDs below 100 are core utility systems that are usually straight copies or modifications of how the AW system works, such as monsters being able to migrate and be defeated by adventurers.
#The IDs above 100 are more unique situations for the specific encounter, but they should correlate with the numbers from above: if ID 10s deal with migration, then ID 110s should be the unique events to do with migration - for example bribing a Thieves Guild to GTFO your country
#Crazy and more uniques ones that dont conform to the utilities should be ID 200

#USE THE anb_aw_eldritch_cultists TO SEE A SIMPLE COPY-PASTABLE FORMAT IN ADDITION TO STUFF LIKE MIGRATION STYLES ETC
#Search for CHANGEABLE for the criteria you should change in that file and this one

#################################################################
# Welcome to the master file for the Adventurers Wanted System. In the comments below you'll see copy-pastable events for you to choose, different migration styles as well as prebuilt events to handle stuff like spawning rebellions
#################################################################

#0 - spawn in province
province_event = {
	id = aw_eldritch_cultists.0
	title = aw_eldritch_cultists.0.t
	desc = aw_eldritch_cultists.0.d
	picture = STREET_SPEECH_eventPicture
	goto = ROOT
	
	is_triggered_only = yes
	#hidden = yes
	
	#yup thats happening
	option = {
		name = aw_basic.0.a
		ai_chance = { 
			factor = 1 
		}
		add_permanent_province_modifier  = {
			name = aw_eldritch_cultists_1
			duration = -1  
		}

		custom_tooltip = aw_how_to_get_more_adventurer_removal_chance_tooltip
	}
}


#1 - event manager, called by on_actions. This happens ONCE per pulse. If you have 7 of these, it still only fires the manager once
country_event = {
	id = aw_eldritch_cultists.1
	title = aw_eldritch_cultists.1.t
	desc = aw_eldritch_cultists.1.d
	picture = COMET_SIGHTED_eventPicture
	
	hidden = yes
	is_triggered_only = yes
	

	trigger = {
	}

	immediate = {
		random_owned_province = {
			limit = {
				OR = { 
					has_province_modifier = aw_eldritch_cultists_1
					has_province_modifier = aw_eldritch_cultists_2
					has_province_modifier = aw_eldritch_cultists_3
				}
			}
			save_event_target_as = aw_target_eldritch_cultist
		}
	}
	
	
	option = {
		event_target:aw_target_eldritch_cultist = {
			random_list = {
                #10 - Base migration, higher so the guys move around a bunch
				20 = {
					trigger = { has_province_modifier = aw_eldritch_cultists_1 }
					modifier = {
						factor = 0.1
						NOT = { development = 10 } # They like backwaters
					}
					province_event = { id = aw_eldritch_cultists.10 }
				}
				
				#13 - Natural Propagation
				3 = {
					trigger = {
						OR = {
							has_province_modifier = aw_eldritch_cultists_2
							has_province_modifier = aw_eldritch_cultists_3
						}
					}
					province_event = { id = aw_eldritch_cultists.13 }
				}

                #20 - natural removal
                3 = {   #was 7, made 3
                    province_event = { id = aw_eldritch_cultists.20 }    #Natural removal
                }

                #21 - adventurer removal
                10 = {  
                    #Base modifiers

                    #more likely if generous quest rewards/adverturer nation
                    modifier = {
                        factor = 2
                        OR = {
                            owner = { has_estate_privilege = estate_adventurers_generous_quest_rewards }
                            owner = { has_adventurer_reform = yes }
                        }
                    }

                    #more likely if loyal
                    modifier = {
                        factor = 2
                        owner = {
                            estate_loyalty = {
                                estate = estate_adventurers
                                loyalty = 60
                            }
                        }
                    }

                    #more likely if high influence
                    modifier = {
                        factor = 2
                        owner = {
                            estate_influence = {
                                estate = estate_adventurers
                                influence = 60
                            }
                        }
                    }
                    #small influence boost at 30
                    modifier = {
                        factor = 1.5
                        owner = {
                            estate_influence = {
                                estate = estate_adventurers
                                influence = 30
                            }
                        }
                    }
                    #adventurer type sponsorships
                    modifier = {
                        factor = 2
                        owner = {
                            has_estate_privilege = estate_adventurers_sponsor_monster_hunters
                        }
                    }
                    province_event = { id = aw_eldritch_cultists.21 }
                }


                #23 - adventurer tier down
                15 = {   #was 14, made 7
                    #Base modifiers

                    #more likely if generous quest rewards/adverturer nation
                    modifier = {
                        factor = 2
                        OR = {
                            owner = { has_estate_privilege = estate_adventurers_generous_quest_rewards }
                            owner = { has_adventurer_reform = yes }
                        }
                    }

                    #more likely if loyal
                    modifier = {
                        factor = 2
                        owner = {
                            estate_loyalty = {
                                estate = estate_adventurers
                                loyalty = 60
                            }
                        }
                    }

                    #more likely if high influence
                    modifier = {
                        factor = 2
                        owner = {
                            estate_influence = {
                                estate = estate_adventurers
                                influence = 60
                            }
                        }
                    }
                    #small influence boost at 30
                    modifier = {
                        factor = 1.5
                        owner = {
                            estate_influence = {
                                estate = estate_adventurers
                                influence = 30
                            }
                        }
                    }
                    #adventurer type sponsorships
                    modifier = {
                        factor = 2
                        owner = {
                            has_estate_privilege = estate_adventurers_sponsor_monster_hunters
                        }
                    }
                    province_event = { id = aw_eldritch_cultists.23 }
                }

                #24 - monstrous nation removal
                3 = {  #was 50, made just as hard
                    modifier = {
                        #only want this to ever be part of the equation if you are monstrous
                        factor = 0
                        NOT = { owner = { has_country_modifier = monstrous_nation } }
                    }
                    #Base modifiers
                    province_event = { id = aw_eldritch_cultists.24 }
                }

                #30 - natural tier up
                5 = {
                    province_event = { id = aw_eldritch_cultists.30 }   
                }
				
				#110 - propagates to neighbours
				5 = {
					trigger = { has_province_modifier = aw_eldritch_cultists_3 }
					province_event = { id = aw_eldritch_cultists.110 }
				}
				
				#120 - Cult forcefully removed by locals
				1 = {
					trigger = { 
						OR = {
							has_province_modifier = aw_eldritch_cultists_2
							has_province_modifier = aw_eldritch_cultists_3 
						} 
					}
					modifier = {
						OR = {
							religion = corinite
							religion = the_jadd
						}
						factor = 10
					}
					modifier = {
						has_province_modifier = aw_eldritch_cultists_3
						factor = 0.1
					}
					province_event = { id = aw_eldritch_cultists.120 }
				}
				
				#121 - Have the Army reclaim the Town
				10 = {
					trigger = { has_province_modifier = aw_eldritch_cultists_3 local_autonomy = 50 }
					modifier = {
						factor = 3
						owner = { advisor = inquisitor }
					}
					province_event = { id = aw_eldritch_cultists.121 }
				}
				
				#130 - Wave of Charity
				5 = {
					trigger = { has_province_modifier = aw_eldritch_cultists_1 }
					province_event = { id = aw_eldritch_cultists.130 }
				}
				
				#131 - Locals Go Missing
				5 = {
					trigger = { has_province_modifier = aw_eldritch_cultists_2 }
					province_event = { id = aw_eldritch_cultists.131 }
				}
				
				#140 - Spooky Dead Animals
				5 = {
					trigger = { 
						OR = {
							has_province_modifier = aw_eldritch_cultists_1
							has_province_modifier = aw_eldritch_cultists_2 
						}
					}
					province_event = { id = aw_eldritch_cultists.140 }
				}
				
				#141 - Local Administration Infiltrated
				5 = {
					trigger = { 
						OR = {
							has_province_modifier = aw_eldritch_cultists_3
						}
					}
					province_event = { id = aw_eldritch_cultists.141 }
				}
				
				#142 - A Strange Fervor
				5 = {
					trigger = { 
						OR = {
							has_province_modifier = aw_eldritch_cultists_2 
							has_province_modifier = aw_eldritch_cultists_3
						}
					}
					province_event = { id = aw_eldritch_cultists.142 }
				}
				
				#143 - Neighbour Dissapearances
				5 = {
					trigger = { 
						OR = { 
							has_province_modifier = aw_eldritch_cultists_3
						}
					}
					province_event = { id = aw_eldritch_cultists.143 }
				}
			}
		}
	}
	
}


#2 - notification of advanturers wanted spawning

############## 10s - Migration and Propagation ###################

#10 - Base migration
province_event = {
	id = aw_eldritch_cultists.10
	title = aw_eldritch_cultists.10.t
	desc = aw_eldritch_cultists.10.d
	picture = STREET_SPEECH_eventPicture
	goto = ROOT
	
	hidden = no
	is_triggered_only = yes
	
	trigger = {
		OR = {
			has_province_modifier = aw_eldritch_cultists_1
		}

		#MAKE SURE TO ADD A any_neighbor_province or relevant check - aka make sure that the immediate = { } effects can even occur before doing the event!
		region_for_scope_province = {
			NOT = { province_id = ROOT }

			is_city = yes
			owner = { NOT = { has_country_modifier = monstrous_nation } }

			NOT = { has_province_modifier = aw_eldritch_cultists_1 }
			NOT = { has_province_modifier = aw_eldritch_cultists_2 }
			NOT = { has_province_modifier = aw_eldritch_cultists_3 }

			#Specific Conditions
		}
	}
	
	immediate = {
		hidden_effect = {
			#CHANGEABLE - MIGRATION TYPE - Any province within my region - dont do area as those are too small. its essentially adjacent anyway
			region = {
				limit = {
					NOT = { province_id = ROOT }

					is_city = yes
					owner = { NOT = { has_country_modifier = monstrous_nation } }

					NOT = { has_province_modifier = aw_eldritch_cultists_1 }
					NOT = { has_province_modifier = aw_eldritch_cultists_2 }
					NOT = { has_province_modifier = aw_eldritch_cultists_3 }

					#Specific Conditions
					
				}
				save_event_target_as = aw_eldritch_cultists_migration_target
			}
			random_neighbor_province = {
				limit = {
					NOT = { province_id = ROOT }

					is_city = yes
					owner = { NOT = { has_country_modifier = monstrous_nation } }

					NOT = { has_province_modifier = aw_eldritch_cultists_1 }
					NOT = { has_province_modifier = aw_eldritch_cultists_2 }
					NOT = { has_province_modifier = aw_eldritch_cultists_3 }

					#Specific Conditions
					
				}
				save_event_target_as = aw_eldritch_cultists_migration_target
			}
		}
	}

	#If migration is within country
	option = {  
		name = aw_eldritch_cultists.10.a
		ai_chance = { factor = 100 }
		goto = aw_eldritch_cultists_migration_target
		trigger = {
			event_target:aw_eldritch_cultists_migration_target = {
				owned_by = ROOT
			}
		}

		#It's migration, so remove modifier from previous province
		tooltip = { #this is fake. the real one happens below
			remove_province_modifier = aw_eldritch_cultists_1
			remove_province_modifier = aw_eldritch_cultists_2
			remove_province_modifier = aw_eldritch_cultists_3
		}

		event_target:aw_eldritch_cultists_migration_target = {
			if = {
				limit = {
					owned_by = ROOT #you need this as this is only for provinces you own. option 10.b is for others
				}

				#CHANGEABLE - SPREAD TYPE: Tier makes Tier of the same at target
				if = {
					limit = {
						FROM = { has_province_modifier = aw_eldritch_cultists_1 }
					}
					add_permanent_province_modifier = { 
						name = aw_eldritch_cultists_1
						duration = -1
					}
				}
				else_if = {
					limit = {
						FROM = { has_province_modifier = aw_eldritch_cultists_2 }
					}
					add_permanent_province_modifier = { 
						name = aw_eldritch_cultists_2
						duration = -1
					}
				}
				else_if = {
					limit = {
						FROM = { has_province_modifier = aw_eldritch_cultists_3 }
					}
					add_permanent_province_modifier = { 
						name = aw_eldritch_cultists_3
						duration = -1
					}
				}
				FROM = {
				#real removal. the other real one is in the called event in the else
					remove_province_modifier = aw_eldritch_cultists_1
					remove_province_modifier = aw_eldritch_cultists_2
					remove_province_modifier = aw_eldritch_cultists_3
				}
			}
		}
	}

	#If migration is sent to OTHER country
	option = {  
		name = aw_eldritch_cultists.10.b
		ai_chance = { factor = 100 }
		goto = aw_eldritch_cultists_migration_target
		trigger = {
			event_target:aw_eldritch_cultists_migration_target = {
				NOT = { owned_by = ROOT }   #if the target isnt in your country, then send an event to them that notifies + adds it on their end
			}
		}

		#It's migration, so remove modifier from previous province
		tooltip = { #this is fake. the real one happens via the event
			remove_province_modifier = aw_eldritch_cultists_1
			remove_province_modifier = aw_eldritch_cultists_2
			remove_province_modifier = aw_eldritch_cultists_3
		}
		
		custom_tooltip = aw_eldritch_cultists_migrate_to_other_country_tt
		hidden_effect = {
			event_target:aw_eldritch_cultists_migration_target = {
				province_event = {
					id = aw_eldritch_cultists.11
				}
			}
		}
	}
}

#11 - migration target notification if it goes to other country
province_event = {
	id = aw_eldritch_cultists.11
	title = aw_eldritch_cultists.11.t
	desc = aw_eldritch_cultists.11.d
	picture = STREET_SPEECH_eventPicture
	goto = ROOT
	
	hidden = no
	is_triggered_only = yes
	
	option = {
		# deal with it ourselves
		name = aw_basic.0.a
		ai_chance = { 
			factor = 20 
		}

		custom_tooltip = aw_how_to_get_more_adventurer_removal_chance_tooltip

		owner = {
			add_opinion = {
				who = FROM
				modifier = aw_crossed_border
			}
		}

		#CHANGEABLE - SPREAD TYPE: Tier makes Tier of the same at target ---(NOTE: THIS USUALLY SHOULD BE THE SAME AS id.10 above)----
		if = {
			limit = {
				FROM = { has_province_modifier = aw_eldritch_cultists_1 }
			}
			add_permanent_province_modifier = { 
				name = aw_eldritch_cultists_1
				duration = -1
			}
		}
		else_if = {
			limit = {
				FROM = { has_province_modifier = aw_eldritch_cultists_2 }
			}
			add_permanent_province_modifier = { 
				name = aw_eldritch_cultists_2
				duration = -1
			}
		}
		else_if = {
			limit = {
				FROM = { has_province_modifier = aw_eldritch_cultists_3 }
			}
			add_permanent_province_modifier = { 
				name = aw_eldritch_cultists_3
				duration = -1
			}
		}

	}

	after = {
		FROM = {	#cleanup event to remove the modifiers from the original province
			remove_province_modifier = aw_eldritch_cultists_1
			remove_province_modifier = aw_eldritch_cultists_2
			remove_province_modifier = aw_eldritch_cultists_3
		}
	}
}

#13 - Base propagation
province_event = {
	id = aw_eldritch_cultists.13
	title = aw_eldritch_cultists.13.t
	desc = aw_eldritch_cultists.13.d
	picture = STREET_SPEECH_eventPicture
	goto = ROOT
	
	hidden = no
	is_triggered_only = yes
	
	trigger = {
		OR = {
			has_province_modifier = aw_eldritch_cultists_2
			has_province_modifier = aw_eldritch_cultists_3
		}

		#MAKE SURE TO ADD A any_neighbor_province or relevant check - aka make sure that the immediate = { } effects can even occur before doing the event!
		any_neighbor_province = {
			is_city = yes
			owner = { NOT = { has_country_modifier = monstrous_nation } }

			NOT = { has_province_modifier = aw_eldritch_cultists_1 }
			NOT = { has_province_modifier = aw_eldritch_cultists_2 }
			NOT = { has_province_modifier = aw_eldritch_cultists_3 }
		}
	}
	
	immediate = {
		hidden_effect = {

			#See .10 for full copy-pastable examples
			random_neighbor_province = {
				limit = {
					#Base Conditions
					is_city = yes
					owner = { NOT = { has_country_modifier = monstrous_nation } }

					NOT = { has_province_modifier = aw_eldritch_cultists_1 }
					NOT = { has_province_modifier = aw_eldritch_cultists_2 }
					NOT = { has_province_modifier = aw_eldritch_cultists_3 }
				}
				save_event_target_as = aw_eldritch_cultists_migration_target
			}
		}
	}

	#If migration is within country
	option = {  
		name = aw_eldritch_cultists.13.a
		ai_chance = { factor = 100 }
		goto = aw_eldritch_cultists_migration_target
		trigger = {
			event_target:aw_eldritch_cultists_migration_target = {
				owned_by = ROOT
			}
		}


		event_target:aw_eldritch_cultists_migration_target = {
			if = {
				limit = {
					owned_by = ROOT
				}

				#Always adds a level 1 infestation
				add_permanent_province_modifier = { 
					name = aw_eldritch_cultists_1
					duration = -1
				}
			}
		}
	}

	#If migration is sent to OTHER country
	option = {  
		name = aw_eldritch_cultists.13.b
		ai_chance = { factor = 100 }
		goto = aw_eldritch_cultists_migration_target
		trigger = {
			event_target:aw_eldritch_cultists_migration_target = {
				NOT = { owned_by = ROOT }   #if the target isnt in your country, then send an event to them that notifies + adds it on their end
			}
		}
		
		custom_tooltip = aw_eldritch_cultists_migrate_to_other_country_tt
		hidden_effect = {
			event_target:aw_eldritch_cultists_migration_target = {
				province_event = {
					id = aw_eldritch_cultists.14
				}
			}
		}
	}
}

#14 - propagation target notification
province_event = {
	id = aw_eldritch_cultists.14
	title = aw_eldritch_cultists.14.t
	desc = aw_eldritch_cultists.14.d
	picture = STREET_SPEECH_eventPicture
	goto = ROOT
	
	hidden = no
	is_triggered_only = yes
	
	option = {
		# deal with it ourselves
		name = aw_basic.0.a
		ai_chance = { 
			factor = 20 
		}

		custom_tooltip = aw_how_to_get_more_adventurer_removal_chance_tooltip

		owner = {
			add_opinion = {
				who = FROM
				modifier = aw_crossed_border
			}
		}

		#Always adds a level 1 infestation
		add_permanent_province_modifier = { 
			name = aw_eldritch_cultists_1
			duration = -1
		}
	}

}

#15 - Migrate to non monstrous if monstrous nation is owner (if its applicable to monsters, like wyverns etc, then this is fine to remove, else keep)
province_event = {
	id = aw_eldritch_cultists.15
	title = aw_eldritch_cultists.15.t
	desc = aw_eldritch_cultists.15.d
	picture = EUROPEAN_REFUGEES_eventPicture
	goto = ROOT
	
	hidden = no
	is_triggered_only = yes
	
	trigger = {
		owner = { has_country_modifier = monstrous_nation }
		OR = {
			has_province_modifier = aw_eldritch_cultists_1
			has_province_modifier = aw_eldritch_cultists_2
			has_province_modifier = aw_eldritch_cultists_3
		}

		owner = {
			any_neighbor_country = {
				NOT = { has_country_modifier = monstrous_nation }
			}
		}
	}
	
	immediate = {
		hidden_effect = {

			#Special one for this event, targeting a neighbouring country that isnt monstrous and any of their owned events

			#CHANGABLE - edit Specific Conditions to make sure it moves to that kind of province! (e.g. if its a thieves guild it will move to a city province)

			owner = {
				random_neighbor_country = {
					limit = {
						NOT = { has_country_modifier = monstrous_nation }
					}
					random_owned_province = {
						limit = {
							#Base Conditions
							NOT = { province_id = ROOT }
							is_city = yes
	
							NOT = { has_province_modifier = aw_eldritch_cultists_1 }
							NOT = { has_province_modifier = aw_eldritch_cultists_2 }
							NOT = { has_province_modifier = aw_eldritch_cultists_3 }
	
	
							#Specific Conditions
							NOT = { development = 10 }
						}
						save_event_target_as = aw_eldritch_cultists_migration_target
					}
				}
			}
		}
	}


	#If migration is sent to OTHER country
	option = {  
		name = aw_eldritch_cultists.10.b
		ai_chance = { factor = 100 }
		goto = aw_eldritch_cultists_migration_target
		trigger = {
			event_target:aw_eldritch_cultists_migration_target = {
				NOT = { owned_by = ROOT }   #if the target isnt in your country, then send an event to them that notifies + adds it on their end
			}
		}

		#It's migration, so remove modifier from previous province
		tooltip = { #this is fake. the real one happens via the event
			remove_province_modifier = aw_eldritch_cultists_1
			remove_province_modifier = aw_eldritch_cultists_2
			remove_province_modifier = aw_eldritch_cultists_3
		}
		
		custom_tooltip = aw_eldritch_cultists_migrate_to_other_country_tt
		hidden_effect = {
			event_target:aw_eldritch_cultists_migration_target = {
				province_event = {
					id = aw_eldritch_cultists.11
		
				}
			}
		}
	}
}

############## 20s - Removal/Tier Down ###################

#20 - natural removal
province_event = {
	id = aw_eldritch_cultists.20
	title = aw_eldritch_cultists.20.t
	desc = aw_eldritch_cultists.20.d
	picture = BORDER_TENSION_eventPicture
	goto = ROOT
	
	hidden = no
	is_triggered_only = yes
	
	trigger = {
		OR = {
			has_province_modifier = aw_eldritch_cultists_1
			has_province_modifier = aw_eldritch_cultists_2
			has_province_modifier = aw_eldritch_cultists_3
		}
	}
	
	option = {
 
		name = aw_eldritch_cultists.20.a
		ai_chance = { factor = 100 }

		remove_province_modifier = aw_eldritch_cultists_1
		remove_province_modifier = aw_eldritch_cultists_2
		remove_province_modifier = aw_eldritch_cultists_3
	}
}

#21 - adventurer removal
province_event = {
	id = aw_eldritch_cultists.21
	title = aw_eldritch_cultists.21.t
	desc = aw_eldritch_cultists.21.d
	picture = MULTI_RACIAL_MERC_eventPicture
	goto = ROOT
	
	hidden = no
	is_triggered_only = yes
	
	trigger = {
		owner = { OR = { has_estate = estate_adventurers has_adventurer_reform = yes  } }
		OR = {
			has_province_modifier = aw_eldritch_cultists_1
			has_province_modifier = aw_eldritch_cultists_2
			has_province_modifier = aw_eldritch_cultists_3
		}
	}
	
	option = {
		# oh, thank goodness
		name = aw_eldritch_cultists.21.a
		ai_chance = { factor = 100 }

		remove_province_modifier = aw_eldritch_cultists_1
		remove_province_modifier = aw_eldritch_cultists_2
		remove_province_modifier = aw_eldritch_cultists_3

		owner = {
			add_estate_influence_modifier = {
				estate = estate_adventurers
				desc = EST_VAL_AW_RESOLVED_ADVENTURERS_WANTED_ENCOUNTER
				duration = 3650
				influence = 5
			}
		}

		owner = { add_prestige_excess_to_splendour_effect = { VAL=5 } }   #10 for hard, 5 for medium, 3 for weak

	}
}

#23 - adventurer tier down
province_event = {
	id = aw_eldritch_cultists.23
	title = aw_eldritch_cultists.23.t
	desc = aw_eldritch_cultists.23.d
	picture = MULTI_RACIAL_MERC_eventPicture
	goto = ROOT
	
	hidden = no
	is_triggered_only = yes
	
	trigger = {
		owner = { OR = { has_estate = estate_adventurers has_adventurer_reform = yes  } }
		OR = { 
			has_province_modifier = aw_eldritch_cultists_1 
			has_province_modifier = aw_eldritch_cultists_2
			has_province_modifier = aw_eldritch_cultists_3
		}
	}
	option = {
		name = aw_eldritch_cultists.23.a
		ai_chance = { factor = 100 }
		if = {
			limit = { 
				has_province_modifier = aw_eldritch_cultists_3 
			}
			remove_province_modifier = aw_eldritch_cultists_3
			add_permanent_province_modifier  = {
				name = aw_eldritch_cultists_2
				duration = -1  
			}
		}
		else_if = {
			limit = { 
				has_province_modifier = aw_eldritch_cultists_2
			}
			remove_province_modifier = aw_eldritch_cultists_2
			add_permanent_province_modifier  = {
				name = aw_eldritch_cultists_1
				duration = -1  
			}
		}
		else_if = {
			limit = { 
				has_province_modifier = aw_eldritch_cultists_1
			}
			remove_province_modifier = aw_eldritch_cultists_1
			owner = { add_prestige_excess_to_splendour_effect = { VAL=5} }   #10 for hard, 5 for medium, 3 for weak
		}

		owner = {
			add_estate_influence_modifier = {
				estate = estate_adventurers
				desc = EST_VAL_AW_RESOLVED_ADVENTURERS_WANTED_ENCOUNTER
				duration = 3650
				influence = 5
			}
		}
	}
}

#24 - monstrous nation removal
province_event = {
	id = aw_eldritch_cultists.24
	title = aw_eldritch_cultists.24.t
	desc = aw_eldritch_cultists.24.d
	picture = BORDER_TENSION_eventPicture
	goto = ROOT
	
	hidden = no
	is_triggered_only = yes
	
	trigger = {
		owner = { has_country_modifier = monstrous_nation }

		OR = {
			has_province_modifier = aw_eldritch_cultists_1
			has_province_modifier = aw_eldritch_cultists_2
			has_province_modifier = aw_eldritch_cultists_3
		}
	}
	
	option = {
 
		name = aw_eldritch_cultists.24.a
		ai_chance = { factor = 100 }

		remove_province_modifier = aw_eldritch_cultists_1
		remove_province_modifier = aw_eldritch_cultists_2
		remove_province_modifier = aw_eldritch_cultists_3

		owner = { add_prestige_excess_to_splendour_effect = { VAL=5} }   #10 for hard, 5 for medium, 3 for weak

	}
}

#25 - monstrous natural tier down. keep if you want, or just rely on removal
province_event = {
	id = aw_eldritch_cultists.25
	title = aw_eldritch_cultists.25.t
	desc = aw_eldritch_cultists.25.d
	picture = BORDER_TENSION_eventPicture
	goto = ROOT
	
	hidden = no
	is_triggered_only = yes
	
	trigger = {
		owner = { has_country_modifier = monstrous_nation }

		OR = { 
			has_province_modifier = aw_eldritch_cultists_1 
			has_province_modifier = aw_eldritch_cultists_2
			has_province_modifier = aw_eldritch_cultists_3
		}
	}
	option = {
		name = aw_eldritch_cultists.25.a
		ai_chance = { factor = 100 }
		if = {
			limit = { 
				has_province_modifier = aw_eldritch_cultists_3 
			}
			remove_province_modifier = aw_eldritch_cultists_3
			add_permanent_province_modifier  = {
				name = aw_eldritch_cultists_2
				duration = -1  
			}
		}
		else_if = {
			limit = { 
				has_province_modifier = aw_eldritch_cultists_2
			}
			remove_province_modifier = aw_eldritch_cultists_2
			add_permanent_province_modifier  = {
				name = aw_eldritch_cultists_1
				duration = -1  
			}
		}
		else_if = {
			limit = { 
				has_province_modifier = aw_eldritch_cultists_1
			}
			remove_province_modifier = aw_eldritch_cultists_1
			owner = { add_prestige_excess_to_splendour_effect = { VAL=5} }   #10 for hard, 5 for medium, 3 for weak
		}
	}
}

############## 30s - Tier Up ###################

#30 - natural tier up
province_event = {
	id = aw_eldritch_cultists.30
	title = aw_eldritch_cultists.30.t
	desc = aw_eldritch_cultists.30.d
	picture = STREET_SPEECH_eventPicture
	goto = ROOT
	
	hidden = no
	is_triggered_only = yes
	
	trigger = {
		OR = { 
			has_province_modifier = aw_eldritch_cultists_1 
			has_province_modifier = aw_eldritch_cultists_2
		}
	}
	option = {
		name = aw_eldritch_cultists.30.a
		ai_chance = { factor = 100 }
		if = {
			limit = { 
				has_province_modifier = aw_eldritch_cultists_1
			}
			remove_province_modifier = aw_eldritch_cultists_1
			add_permanent_province_modifier  = {
				name = aw_eldritch_cultists_2
				duration = -1  
			}
		}
		else_if = {
			limit = { 
				has_province_modifier = aw_eldritch_cultists_2
			}
			remove_province_modifier = aw_eldritch_cultists_2
			add_permanent_province_modifier  = {
				name = aw_eldritch_cultists_3
				duration = -1  
			}
		}

		custom_tooltip = aw_how_to_get_more_adventurer_removal_chance_tooltip   #should be added for each increase of level
	}
}

############## 40s - Other Utility ###################
# Not applicable


############## 110s - Special Migration & Propagation ###################
# Cult moves into neighbouring province (OWNED BY YOU as a notification event was never hooked up to this -Jay)
province_event = {
	id = aw_eldritch_cultists.110
	title = aw_eldritch_cultists.110.t
	desc = aw_eldritch_cultists.110.d
	picture = STREET_SPEECH_eventPicture
	goto = ROOT
	
	is_triggered_only = yes
	
	trigger = {
		OR = {
			has_province_modifier = aw_eldritch_cultists_3
		}

		any_neighbor_province = {
			NOT = { province_id = ROOT }
			owned_by = ROOT
			is_city = yes
			
			NOT = { has_province_modifier = aw_eldritch_cultists_1 }
			NOT = { has_province_modifier = aw_eldritch_cultists_2 }
			NOT = { has_province_modifier = aw_eldritch_cultists_3 }
		}
	}
	
	immediate = {
		random_neighbor_province = {
			limit = {
				NOT = { province_id = ROOT }
				owned_by = ROOT
				is_city = yes
				
				NOT = { has_province_modifier = aw_eldritch_cultists_1 }
				NOT = { has_province_modifier = aw_eldritch_cultists_2 }
				NOT = { has_province_modifier = aw_eldritch_cultists_3 }
			}
			save_event_target_as = aw_eldritch_cultists_migration_target
		}
	}
	
	option = {
		name = aw_eldritch_cultists.110.a
		event_target:aw_eldritch_cultists_migration_target = {
			add_base_tax = -1
			add_base_production = -1
			add_base_manpower = -1
			add_permanent_province_modifier = {
				name = aw_eldritch_cultists_2
				duration = -1
			}
		}
	}
}


############## 120s - Special Removal/Tier Down ###################

#Expelled from province and starts weak elsewhere (made for owner again, as theres no notification event setup -Jay)
province_event = {
	id = aw_eldritch_cultists.120
	title = aw_eldritch_cultists.120.t
	desc = aw_eldritch_cultists.120.d
	picture = BORDER_TENSION_eventPicture
	goto = ROOT
	
	is_triggered_only = yes
	
	trigger = {
		OR = {
			has_province_modifier = aw_eldritch_cultists_2
			has_province_modifier = aw_eldritch_cultists_3 # Make this less likely
		}

		region_for_scope_province = {
			NOT = { province_id = ROOT }
			owned_by = ROOT
			is_city = yes

			NOT = { has_province_modifier = aw_eldritch_cultists_1 }
			NOT = { has_province_modifier = aw_eldritch_cultists_2 }
			NOT = { has_province_modifier = aw_eldritch_cultists_3 }

			#Specific Conditions
		}
	}
	
	immediate = {
		region = {
			limit = {
				NOT = { province_id = ROOT }
				owned_by = ROOT
				is_city = yes

				NOT = { has_province_modifier = aw_eldritch_cultists_1 }
				NOT = { has_province_modifier = aw_eldritch_cultists_2 }
				NOT = { has_province_modifier = aw_eldritch_cultists_3 }

				#Specific Conditions
				
			}
			save_event_target_as = aw_eldritch_cultists_migration_target
		}
	}
	
	option = {
		name = aw_eldritch_cultists.120.a
		add_devastation = 33
		
		remove_province_modifier = aw_eldritch_cultists_1
		remove_province_modifier = aw_eldritch_cultists_2
		remove_province_modifier = aw_eldritch_cultists_3
		
		# Spread to a new place
		event_target:aw_eldritch_cultists_migration_target = {
			add_permanent_province_modifier = {
				name = aw_eldritch_cultists_1
				duration = -1
			}
		}
	}
}

# Forcelly retake town
province_event = {
	id = aw_eldritch_cultists.121
	title = aw_eldritch_cultists.121.t
	desc = aw_eldritch_cultists.121.d
	picture = CITY_VIEW_eventPicture
	goto = ROOT
	
	is_triggered_only = yes
	
	trigger = {
		OR = {
			has_province_modifier = aw_eldritch_cultists_3
		}
		local_autonomy = 50
	}
	
	# Reclaim the Town
	option = {
		name = aw_eldritch_cultists.121.a
		add_devastation = 5
		add_local_autonomy = -10
		
		owner = { add_mil_power = -50 }
		remove_province_modifier = aw_eldritch_cultists_2
		remove_province_modifier = aw_eldritch_cultists_3
		
		# Spread to a new place
		add_permanent_province_modifier = {
			name = aw_eldritch_cultists_1
			duration = -1
		}
	}
	
	# Leave it
	option = {
		name = aw_eldritch_cultists.121.b
		add_local_autonomy = 5
	}
}

############## 130s - Special Tier Up ###################
# Wave of Charitability
province_event = {
	id = aw_eldritch_cultists.130
	title = aw_eldritch_cultists.130.t
	desc = aw_eldritch_cultists.130.d
	picture = CORRUPTION_eventPicture
	goto = ROOT
	
	is_triggered_only = yes
	
	trigger = {
		OR = { 
			has_province_modifier = aw_eldritch_cultists_1 
			has_province_modifier = aw_eldritch_cultists_2
		}

		NOT = { has_province_modifier = aw_eldritch_cultists_donation_spree }
	}
	
	option = {
		name = aw_eldritch_cultists.130.a
		ai_chance = { factor = 100 }
		add_province_modifier = {
			name = aw_eldritch_cultists_donation_spree
			duration = 1095
		}
		if = {
			limit = { 
				has_province_modifier = aw_eldritch_cultists_1
			}
			remove_province_modifier = aw_eldritch_cultists_1
			add_permanent_province_modifier  = {
				name = aw_eldritch_cultists_2
				duration = -1  
			}
		}
		else_if = {
			limit = { 
				has_province_modifier = aw_eldritch_cultists_2
			}
			remove_province_modifier = aw_eldritch_cultists_2
			add_permanent_province_modifier  = {
				name = aw_eldritch_cultists_3
				duration = -1  
			}
		}

		custom_tooltip = aw_how_to_get_more_adventurer_removal_chance_tooltip   #should be added for each increase of level
	}
}

# Local sacrifices
province_event = {
	id = aw_eldritch_cultists.131
	title = aw_eldritch_cultists.131.t
	desc = aw_eldritch_cultists.131.d
	picture = EUROPEAN_REFUGEES_eventPicture
	goto = ROOT
	
	is_triggered_only = yes
	
	trigger = {
		OR = { 
			has_province_modifier = aw_eldritch_cultists_2
		}

		NOT = { has_province_modifier = aw_eldritch_cultists_sacrifices }
	}
	
	option = {
		name = aw_eldritch_cultists.131.a
		
		add_devastation = 10
		add_province_modifier = {
			name = aw_eldritch_cultists_sacrifices
			duration = 1825
		}
		
		if = {
			limit = { 
				has_province_modifier = aw_eldritch_cultists_1
			}
			remove_province_modifier = aw_eldritch_cultists_1
			add_permanent_province_modifier  = {
				name = aw_eldritch_cultists_2
				duration = -1  
			}
		}
		else_if = {
			limit = { 
				has_province_modifier = aw_eldritch_cultists_2
			}
			remove_province_modifier = aw_eldritch_cultists_2
			add_permanent_province_modifier  = {
				name = aw_eldritch_cultists_3
				duration = -1  
			}
		}
		
		custom_tooltip = aw_how_to_get_more_adventurer_removal_chance_tooltip
	}
}

############## 140s - Other Special Utility ###################
# Livestock go missing
province_event = {
	id = aw_eldritch_cultists.140
	title = aw_eldritch_cultists.140.t
	desc = aw_eldritch_cultists.140.d
	picture = FARMING_eventPicture
	goto = ROOT
	
	is_triggered_only = yes
	
	trigger = {
		OR = { 
			has_province_modifier = aw_eldritch_cultists_1 
			has_province_modifier = aw_eldritch_cultists_2
		}

		NOT = { has_province_modifier = aw_eldritch_cultists_dead_livestock }
	}
	
	option = {
		name = aw_eldritch_cultists.140.a
		add_permanent_province_modifier = {
			name = aw_eldritch_cultists_dead_livestock
			duration = 1825
		}
		add_devastation = 10
	}
}

# Administration infiltrated
province_event = {
	id = aw_eldritch_cultists.141
	title = aw_eldritch_cultists.141.t
	desc = aw_eldritch_cultists.141.d
	picture = SPY_eventPicture
	goto = ROOT
	
	is_triggered_only = yes
	
	trigger = {
		OR = { 
			has_province_modifier = aw_eldritch_cultists_3
		}

		owner = { NOT = { has_country_modifier = aw_eldritch_cultists_government_infilitration } }

		owner = { NOT = { stability = 1 }}
	}
	
	option = {
		name = aw_eldritch_cultists.141.a
		owner = { 
			add_country_modifier = {
				name = aw_eldritch_cultists_government_infilitration
				duration = 3650
			}
		}
	}
}

# Crazed Fervour
province_event = {
	id = aw_eldritch_cultists.142
	title = aw_eldritch_cultists.142.t
	desc = aw_eldritch_cultists.142.d
	picture = BORDER_TENSION_eventPicture
	goto = ROOT
	
	is_triggered_only = yes
	
	trigger = {
		OR = { 
			has_province_modifier = aw_eldritch_cultists_2 
			has_province_modifier = aw_eldritch_cultists_3
		}
	}
	
	option = {
		name = aw_eldritch_cultists.142.a
		add_unrest = 10
	}
}

# Neighbour sacrifices
province_event = {
	id = aw_eldritch_cultists.143
	title = aw_eldritch_cultists.143.t
	desc = aw_eldritch_cultists.143.d
	picture = CITY_VIEW_eventPicture
	goto = ROOT
	
	is_triggered_only = yes
	
	trigger = {
		OR = { 
			has_province_modifier = aw_eldritch_cultists_3
		}
		any_neighbor_province = {
			is_city = yes
			NOT = { has_province_modifier = aw_eldritch_cultists_1 }
			NOT = { has_province_modifier = aw_eldritch_cultists_2 }
			NOT = { has_province_modifier = aw_eldritch_cultists_3 }

			NOT = { has_province_modifier = aw_eldritch_cultists_sacrifices }
		}
	}
	
	immediate = {
		random_neighbor_province = {
			limit = {
				is_city = yes
				NOT = { has_province_modifier = aw_eldritch_cultists_1 }
				NOT = { has_province_modifier = aw_eldritch_cultists_2 }
				NOT = { has_province_modifier = aw_eldritch_cultists_3 }
				NOT = { has_province_modifier = aw_eldritch_cultists_sacrifices }
			}
			save_event_target_as = aw_target_eldritch_cultist
		}
	}
	
	option = {
		name = aw_eldritch_cultists.143.a
		goto = aw_target_eldritch_cultist
		trigger = {
			event_target:aw_target_eldritch_cultist = {
				owned_by = ROOT
			}
		}
		event_target:aw_target_eldritch_cultist = {
			add_devastation = 10
			add_province_modifier = {
				name = aw_eldritch_cultists_sacrifices
				duration = 1825
			}
		}
	}
	
	option = {
		name = aw_eldritch_cultists.143.a
		goto = aw_target_eldritch_cultist
		trigger = {
			event_target:aw_target_eldritch_cultist = {
				NOT = { owned_by = ROOT }
			}
		}
		event_target:aw_target_eldritch_cultist = {
			add_devastation = 10
			add_province_modifier = {
				name = aw_eldritch_cultists_sacrifices
				duration = 1825
			}
			hidden_effect = { province_event = { id = aw_eldritch_cultists.144 } }
		}
	}
}

# Neighbour sacrifices - notification
province_event = {
	id = aw_eldritch_cultists.144
	title = aw_eldritch_cultists.144.t
	desc = aw_eldritch_cultists.144.d
	picture = CITY_VIEW_eventPicture
	goto = ROOT
	
	is_triggered_only = yes
	
	immediate = {
		hidden_effect = {
			FROM = { owner = { save_event_target_as = aw_eldritch_cultists_from } }
		}
	}
	
	option = {
		name = aw_eldritch_cultists.143.a
		goto = aw_target_eldritch_cultist
		tooltip = {
			add_devastation = 10
			add_province_modifier = {
				name = aw_eldritch_cultists_sacrifices
				duration = 1825
			}
		}
		owner = {
			event_target:aw_eldritch_cultists_from = {
				reverse_add_casus_belli = {
					target = PREV
					type = cb_aw_monster_attack
					months = 18
				}
			}
		}
	}
}

############## 200s - Special Flavour ###################